{
  "success": true,
  "msg": "ok",
  "data": {
    "pageNo":1,
    "pageCount":10,
    "total":13,
    "rows":[{
      "id":"1",
      "page":"项目管理-项目信息详情",
      "flow-name":"项目立项审批流程",
      "flow":"发起人-分公司所在部门负责人-分公司总经理-集团总经理",
      "statu":"已生效"
    },{
      "id":"1",
      "page":"项目管理-项目信息详情",
      "flow-name":"项目立项审批流程",
      "flow":"发起人-分公司所在部门负责人-分公司总经理-集团总经理",
      "statu":"未生效"
    },{
      "id":"1",
      "page":"项目管理-项目信息详情",
      "flow-name":"项目立项审批流程",
      "flow":"发起人-分公司所在部门负责人-分公司总经理-集团总经理",
      "statu":"已生效"
    },{
      "id":"1",
      "page":"项目管理-项目信息详情",
      "flow-name":"项目立项审批流程",
      "flow":"发起人-分公司所在部门负责人-分公司总经理-集团总经理",
      "statu":"未生效"
    },{
      "id":"1",
      "page":"项目管理-项目信息详情",
      "flow-name":"项目立项审批流程",
      "flow":"发起人-分公司所在部门负责人-分公司总经理-集团总经理",
      "statu":"已生效"
    },{
      "id":"1",
      "page":"项目管理-项目信息详情",
      "flow-name":"项目立项审批流程",
      "flow":"发起人-分公司所在部门负责人-分公司总经理-集团总经理",
      "statu":"未生效"
    },{
      "id":"1",
      "page":"项目管理-项目信息详情",
      "flow-name":"项目立项审批流程",
      "flow":"发起人-分公司所在部门负责人-分公司总经理-集团总经理",
      "statu":"已生效"
    },{
      "id":"1",
      "page":"项目管理-项目信息详情",
      "flow-name":"项目立项审批流程",
      "flow":"发起人-分公司所在部门负责人-分公司总经理-集团总经理",
      "statu":"未生效"
    },{
      "id":"1",
      "page":"项目管理-项目信息详情",
      "flow-name":"项目立项审批流程",
      "flow":"发起人-分公司所在部门负责人-分公司总经理-集团总经理",
      "statu":"已生效"
    },{
      "id":"1",
      "page":"项目管理-项目信息详情",
      "flow-name":"项目立项审批流程",
      "flow":"发起人-分公司所在部门负责人-分公司总经理-集团总经理",
      "statu":"未生效"
    },{
      "id":"1",
      "page":"项目管理-项目信息详情",
      "flow-name":"项目立项审批流程",
      "flow":"发起人-分公司所在部门负责人-分公司总经理-集团总经理",
      "statu":"已生效"
    },{
      "id":"1",
      "page":"项目管理-项目信息详情",
      "flow-name":"项目立项审批流程",
      "flow":"发起人-分公司所在部门负责人-分公司总经理-集团总经理",
      "statu":"未生效"
    }]
  }
}