{
  "success": true,
  "msg": "ok",
  "data": {
    "pageNo":1,
    "pageCount":10,
    "total":6,
    "rows":[{
      "id":"3",
      "num":"11",
      "tax-type":"普通发票",
      "company":"武钢集团",
      "dm":"20152145222",
      "hm":"20152145222",
      "project":"轨道交通大厦",
      "pact":"螺纹管2016",
      "tax-type":"普通发票",
      "time":"2015-12-25",
      "date":"2015-12-25",
      "taxAll":"60000,000.00",
      "sl":"11%",
      "se":"600.00",
      "no-tax":"6000.00",
      "approve-time":"2015-12-25",
      "sta":"已通过"
    },{
      "id":"4",
       "num":"11",
      "tax-type":"普通发票",
      "company":"武钢集团",
      "dm":"20152145222",
      "hm":"20152145222",
      "project":"轨道交通大厦",
      "pact":"螺纹管2016",
      "tax-type":"普通发票",
      "time":"2015-12-25",
      "date":"2015-12-25",
      "taxAll":"60000,000.00",
      "sl":"11%",
      "se":"600.00",
      "no-tax":"6000.00",
      "approve-time":"2015-12-25",
      "sta":"已通过"
    },{
       "num":"11",
      "tax-type":"普通发票",
      "company":"武钢集团",
      "dm":"20152145222",
      "hm":"20152145222",
      "project":"轨道交通大厦",
      "pact":"螺纹管2016",
      "tax-type":"普通发票",
      "time":"2015-12-25",
      "date":"2015-12-25",
      "taxAll":"60000,000.00",
      "sl":"11%",
      "se":"600.00",
      "no-tax":"6000.00",
      "approve-time":"2015-12-25",
      "sta":"已通过"
    },{
      "id":"2",
       "num":"11",
      "tax-type":"普通发票",
      "company":"武钢集团",
      "dm":"20152145222",
      "hm":"20152145222",
      "project":"轨道交通大厦",
      "pact":"螺纹管2016",
      "tax-type":"普通发票",
      "time":"2015-12-25",
      "date":"2015-12-25",
      "taxAll":"60000,000.00",
      "sl":"11%",
      "se":"600.00",
      "no-tax":"6000.00",
      "approve-time":"2015-12-25",
      "sta":"已通过"
    }]
  }
}