{
  "success": true,
  "msg": "ok",
  "data": {
    "pageNo":1,
    "pageCount":10,
    "total":2,
    "rows":[{
      "id":"1",
      "payStyle":"筑牛平台"
    }]
  }
}