{
  "success": true,
  "msg": "ok",
  "data": {
    "pageNo":1,
    "pageCount":10,
    "total":6,
    "rows":[{
      "id":"2",
      "num":"11",
      "orderNum":"2015255",
      "orderName":"螺纹管采购",
      "bm":"第三分公司",
      "project":"南京歌剧院",
      "deal-time":"20160225",
      "fh":"20160325",
      "all":"6,000.00",
      "isYes":"是",
      "tax":"17%",
      "isQ":"否"
    },{
      "id":"3",
      "num":"11",
      "orderNum":"2015255",
      "orderName":"螺纹管采购",
      "bm":"第三分公司",
      "project":"南京歌剧院",
      "deal-time":"20160225",
      "fh":"20160325",
      "all":"6,000.00",
      "isYes":"是",
      "tax":"17%",
      "isQ":"否"
    },{
      "id":"4",
      "num":"11",
      "orderNum":"2015255",
      "orderName":"螺纹管采购",
      "bm":"第三分公司",
      "project":"南京歌剧院",
      "deal-time":"20160225",
      "fh":"20160325",
      "all":"6,000.00",
      "isYes":"是",
      "tax":"17%",
      "isQ":"否"
    }]
  }
}